\relax 
\providecommand\babel@aux[2]{}
\@nameuse{bbl@beforestart}
\providecommand \oddpage@label [2]{}
\babel@aux{english}{}
\@writefile{toc}{\contentsline {section}{\numberline {1}Notes}{1}\protected@file@percent }
\@writefile{toc}{\contentsline {section}{\numberline {2}Couplings}{1}\protected@file@percent }
\@writefile{toc}{\contentsline {section}{\numberline {3}Random Grid Metropolis Update}{2}\protected@file@percent }
\@writefile{toc}{\contentsline {section}{\numberline {4}Gaussian Gibb's sampler}{3}\protected@file@percent }
\@writefile{toc}{\contentsline {section}{\numberline {5}coupling}{4}\protected@file@percent }
\@writefile{toc}{\contentsline {subsection}{\numberline {5.1}Study of convergence speed, K = 1}{5}\protected@file@percent }
\@writefile{toc}{\contentsline {subsection}{\numberline {5.2}Study of coalescence speed, K = 2}{5}\protected@file@percent }
\@writefile{toc}{\contentsline {subsection}{\numberline {5.3}Study of coalescence speed, general K}{5}\protected@file@percent }
